<svg width="161" height="161" viewBox="0 0 161 161" fill="none" xmlns="http://www.w3.org/2000/svg">
<path d="M80.5 155.969C122.18 155.969 155.969 122.18 155.969 80.5C155.969 38.8198 122.18 5.03125 80.5 5.03125C38.8198 5.03125 5.03125 38.8198 5.03125 80.5C5.03125 122.18 38.8198 155.969 80.5 155.969Z" fill="#3E4347"/>
<path d="M15.8484 45.2813L9.05624 38.4891C3.77343 33.2063 3.77343 24.6532 9.05624 19.6219L19.6219 9.05629C24.9047 3.77347 33.4578 3.77347 38.4891 9.05629L45.2812 15.8485L37.4828 23.6469L30.6906 16.8547C29.9359 16.1 28.4266 16.1 27.4203 16.8547L16.8547 27.4203C16.1 28.175 16.1 29.6844 16.8547 30.6907L23.6469 37.4828L15.8484 45.2813Z" fill="#3E4347"/>
<path d="M145.152 115.719L151.944 122.511C157.227 127.794 157.227 136.347 151.944 141.378L141.378 151.944C136.095 157.227 127.542 157.227 122.511 151.944L115.719 145.152L123.517 137.353L130.309 144.145C131.064 144.9 132.573 144.9 133.58 144.145L144.145 133.58C144.9 132.825 144.9 131.316 144.145 130.309L137.353 123.517L145.152 115.719Z" fill="#3E4347"/>
<path d="M80.5 139.366C113.011 139.366 139.366 113.011 139.366 80.5C139.366 47.9894 113.011 21.6343 80.5 21.6343C47.9894 21.6343 21.6344 47.9894 21.6344 80.5C21.6344 113.011 47.9894 139.366 80.5 139.366Z" fill="#F2B200"/>
<path d="M99.6188 28.6781C87.0406 22.1375 67.1672 34.7156 69.4313 45.2812C71.6953 55.8468 97.6063 63.3937 104.65 78.2359C111.694 93.0781 114.964 97.8578 127.542 87.7953C139.869 77.4812 145.655 53.0797 99.6188 28.6781Z" fill="#B47D56"/>
<path d="M97.6062 34.7156C106.159 34.7156 92.3234 39.4953 84.2734 46.5391C80.2484 50.0609 82.0094 34.7156 97.6062 34.7156Z" fill="#89664C"/>
<path d="M115.97 47.0422C124.523 47.0422 110.687 51.8219 102.386 58.8657C98.6125 62.136 100.373 47.0422 115.97 47.0422Z" fill="#89664C"/>
<path d="M127.291 65.9094C135.844 65.9094 122.008 70.6891 113.706 77.7329C109.933 81.0032 111.945 65.9094 127.291 65.9094Z" fill="#89664C"/>
<path d="M26.9172 95.5938C22.1375 83.5188 37.9859 68.6766 48.3 72.4501C58.8656 76.2235 62.639 99.8704 76.475 108.675C90.3109 117.228 94.8391 121.002 82.7641 130.058C70.4375 139.114 44.7781 139.617 26.9172 95.5938Z" fill="#B47D56"/>
<path d="M33.7094 98.8641C32.4516 106.159 39.2437 95.0906 47.7969 89.3047C51.8219 86.5375 35.9734 85.5312 33.7094 98.8641Z" fill="#89664C"/>
<path d="M42.2625 114.209C41.0047 121.505 47.7969 110.436 56.35 104.65C60.375 101.883 44.5265 100.877 42.2625 114.209Z" fill="#89664C"/>
<path d="M57.3562 125.53C56.0984 132.825 62.8906 121.756 71.4437 115.97C75.4687 113.203 59.8719 111.945 57.3562 125.53Z" fill="#89664C"/>
<path d="M64.4 32.7031C58.8657 27.4203 58.8657 27.4203 42.7656 44.275C33.961 53.5828 29.4328 63.3937 32.4516 66.1609C37.986 71.4437 37.986 71.4437 53.8344 54.589C62.8906 45.5328 67.4188 35.7219 64.4 32.7031Z" fill="#699635"/>
<path d="M129.555 101.128C125.027 95.0906 125.027 95.0906 106.663 108.172C96.3484 115.467 90.3109 124.02 92.575 127.291C97.1031 133.328 97.1031 133.328 115.467 120.247C125.781 112.952 132.07 104.398 129.555 101.128Z" fill="#699635"/>
<path d="M97.1031 83.5187C100.373 75.9719 100.373 75.9719 78.236 65.6578C65.9094 59.8719 54.5891 58.6141 52.8282 62.6391C49.5578 70.1859 49.5578 70.1859 71.6953 80.5C83.7703 86.2859 95.0906 87.5437 97.1031 83.5187Z" fill="#699635"/>
<path d="M109.43 95.0906C109.933 89.5563 105.405 92.3234 97.1031 92.0719C88.8016 91.5688 91.0656 98.1094 91.5688 103.392C91.8203 108.675 95.0906 104.398 107.166 104.65C111.694 104.902 108.675 100.625 109.43 95.0906Z" fill="#ED4C5C"/>
<path d="M75.2172 85.7828C68.9281 83.5187 70.9406 87.7953 67.6703 93.8328C64.4 99.8703 72.9531 100.122 79.2422 101.631C85.5313 103.141 81.5063 99.3672 85.7828 90.5625C87.5438 87.2922 81.5063 88.0469 75.2172 85.7828Z" fill="#FFCE31"/>
<path d="M61.6328 47.5453C55.3437 45.2812 57.3562 49.5578 54.0859 55.5953C50.8156 61.6328 59.3687 61.8843 65.6578 63.3937C71.9469 64.9031 67.9219 61.1296 72.1984 52.3249C73.9594 49.0546 67.9219 49.8093 61.6328 47.5453Z" fill="#ED4C5C"/>
<path d="M35.2187 65.9094C28.9297 63.6453 30.9422 67.9219 27.6719 73.9594C24.4015 79.9969 32.9547 80.2485 39.2437 81.7578C45.5328 83.2672 41.5078 79.4938 45.7844 70.6891C47.5453 67.1672 41.5078 67.9219 35.2187 65.9094Z" fill="#FFCE31"/>
<g filter="url(#filter0_d)">
<path d="M102.406 37.7153H83.3481C82.389 37.7153 81.6156 38.4888 81.6156 39.4478V74.6624C81.8554 83.0465 81.4764 92.9852 80.44 94.6867C80.3626 94.7873 80.2853 94.9033 80.2312 95.0193C78.9937 97.5949 74.8944 100.263 70.1842 100.263C65.2883 100.263 59.5262 96.0402 57.8556 91.2295C57.709 90.8023 57.4014 90.4492 56.9984 90.2455C56.5953 90.0418 56.1286 90.0036 55.6977 90.1389L39.8655 95.0967C39.0456 95.3519 38.5506 96.164 38.6821 97.0148C38.6898 97.0689 38.7053 97.1231 38.713 97.1695C40.5074 110.767 53.3619 119.893 70.7798 119.893C88.2053 119.893 101.068 110.759 102.862 97.154C102.877 97.0767 102.893 97.007 102.901 96.9297C104.107 85.3127 104.123 74.7243 104.123 74.616V39.4478C104.138 38.4965 103.365 37.7153 102.406 37.7153Z" fill="white"/>
</g>
<defs>
<filter id="filter0_d" x="21" y="25" width="107" height="107" filterUnits="userSpaceOnUse" color-interpolation-filters="sRGB">
<feFlood flood-opacity="0" result="BackgroundImageFix"/>
<feColorMatrix in="SourceAlpha" type="matrix" values="0 0 0 0 0 0 0 0 0 0 0 0 0 0 0 0 0 0 127 0" result="hardAlpha"/>
<feOffset dy="4"/>
<feGaussianBlur stdDeviation="2"/>
<feComposite in2="hardAlpha" operator="out"/>
<feColorMatrix type="matrix" values="0 0 0 0 0 0 0 0 0 0 0 0 0 0 0 0 0 0 0.25 0"/>
<feBlend mode="normal" in2="BackgroundImageFix" result="effect1_dropShadow"/>
<feBlend mode="normal" in="SourceGraphic" in2="effect1_dropShadow" result="shape"/>
</filter>
</defs>
</svg>
